{
	"iu-pro": {
		"ios_version": 22,
		"android_version": 10003,
		"days_to_update": 300,
		"days_to_update_android": 300
	},
	"iu": {
		"ios_version": 10,
		"android_version": 10001,
		"days_to_update": 300,
		"days_to_update_android": 300
	}
}
